-2.86486
-3.8797
-0.0909274
-31.5029
143.154
-66.4389
113.79
-253.324
-96.0951
-110.436
88.2291
47.573
-64.521
90.108
14.1298
-39.3795
-53.5937
-18.234
-35.663
97.4657
-105.533
-54.9867
31.9795
-58.1623
45.3224
16.1573
39.6941
119.059
-52.4719
2.24839
103.165
-32.3872
-109.795
35.4063
22.5699
-27.3426
-125.324
9.74953
-91.9406
-7.97611
-102.563
59.658
-51.6117
15.4204
44.4503
-57.0994
73.9831
-49.7178
-27.9068
1.29605
21.5381
135.035
-61.629
-67.1202
-4.78665
7.08917
37.4476
-1.82045
-19.8664
-113.309
-19.7213
-4.65428
-69.3996
18.0993
-75.8844
51.9506
-21.4369
98.0672
-57.7664
104.259
-58.4174
-113.231
32.1573
75.7476
-34.247
-13.9125
0.558012
39.078
-17.5859
-46.4739
153.135
42.0489
25.7535
59.0745
75.4535
56.6826
172.748
-68.2134
20.0306
110.285
45.0188
-3.81298
52.3018
108.377
41.9421
17.0499
-90.9479
42.0202
49.8905
46.4945
-82.1149
-120.172
76.9846
-165.474
-163.06
34.0333
1.74884
-58.1008
10.5571
-17.2266
20.8031
-37.7317
-59.6016
82.5571
-10.9714
25.3834
-47.2523
-20.4276
47.2675
0.727798
-25.5979
88.825
54.1511
-65.886
4.10372
-28.3324
24.037
35.8781
41.9517
-157.098
1.69795
17.1499
14.0471
52.8049
5.5496
-56.2788
-14.4076
-46.4925
-93.7037
-31.5742
-50.8011
-52.1707
-33.7182
-15.9392
-4.25936
55.8382
-42.1718
26.526
47.2049
-72.6149
-110.44
57.2083
20.1278
76.9234
72.6214
-62.1558
-10.4015
21.5971
6.18575
13.4864
92.3401
-114.688
-109.013
12.9087
54.1459
38.163
-17.8345
-7.06364
43.1916
-32.8753
-71.9486
26.3675
36.1922
94.6216
-77.0628
-64.3699
-47.0701
58.1002
-14.0732
3.32144
149.545
-89.0888
-30.9025
-107.997
16.8723
-2.02156
77.7817
-20.2684
-83.8395
-47.7391
-44.8678
-70.2309
40.0899
51.8765
-43.189
33.0268
-19.7612
-63.1939
-102.748
-42.2004
-27.2876
72.0153
-140.83
28.2566
-28.5917
140.563
46.1337
23.2496
-54.4622
-122.204
-86.0856
-3.76133
22.9063
-61.7378
38.4759
1.4541
-47.814
-43.0221
-46.0198
7.94941
9.8756
15.4084
-93.1007
-17.8104
-83.6764
-51.8238
96.6521
-105.274
-1.49277
-60.9516
19.0152
24.1295
7.14966
-16.7829
-2.29102
-62.1883
19.0806
-64.3167
3.14784
-55.0347
68.1366
-75.1103
37.3677
101.476
19.5049
51.3285
-40.1098
108.002
20.7642
-108.058
14.6579
38.6477
74.1986
27.58
-42.7614
-51.1022
-23.3116
21.5759
59.9689
22.9494
46.961
-46.4902
-85.9641
18.4929
93.08
-74.5878
66.2748
16.7065
6.66761
14.5809
-177.012
15.8326
-1.406
-3.21519
-40.7816
19.3044
-122.71
23.106
-54.79
25.8898
30.5883
2.5241
-101.437
-36.4351
-38.0103
5.15508
0.756026
65.8729
30.381
1.82013
-2.74339
77.8163
-129.534
-66.8306
-83.1678
25.1144
-76.3508
46.9807
47.3121
73.8528
-55.8515
30.6718
127.081
-20.8037
122.17
33.6501
49.4756
-94.5653
32.0391
13.4651
26.042
41.8146
-91.446
72.6683
97.9632
57.7287
-92.5463
4.51576
-15.5815
12.4939
24.9793
68.6869
28.6087
51.0767
85.0873
-52.7906
-49.0939
26.5044
-86.2955
38.6819
-37.0709
10.1336
-35.5249
-28.5424
-77.5484
64.3446
-2.48761
-36.4296
-173.592
-90.0436
-4.41141
-97.988
114.184
-55.2485
41.7407
-8.09633
-120.593
-137.369
-141.524
-56.5439
24.2148
132.226
59.6338
144.011
-40.3513
-26.7474
-174.215
-114.835
2.69859
17.713
6.20548
54.044
-38.0229
35.0672
-47.9344
-28.2591
30.2447
-37.39
-4.10943
-40.694
-93.3446
116.576
18.1871
-15.519
4.84595
-119.859
154.493
-2.55709
78.2785
-46.6541
-6.83925
-43.2523
-2.73717
-66.4787
121.352
16.9487
-141.397
63.4635
-25.6856
14.2661
17.0182
21.3697
24.4409
100.496
73.88
53.8446
23.762
-102.542
-35.9587
64.8875
-7.80252
-15.0615
15.4992
81.6443
19.0631
55.6842
2.72992
-173.892
-63.4787
8.86914
69.8435
70.0487
27.366
-26.1484
86.2073
-27.7854
37.9901
-55.8984
-53.3843
23.766
-43.1173
-18.1987
-75.0209
-38.874
-163
29.4063
-0.0839243
-69.7028
-0.924409
6.61528
5.0273
-11.3033
-12.2602
57.1961
-69.5326
-11.4302
28.8634
-130.966
13.6012
163.627
99.8204
60.9087
40.1302
-59.5709
114.05
11.6928
44.1845
-152.341
-83.8839
-17.2867
-102.687
100.579
-87.521
82.5287
-21.6128
-65.6355
-74.9735
27.4239
76.1901
52.4066
-62.0639
-93.246
-83.3946
57.5107
-52.7147
25.3416
-57.6398
1.86484
26.064
20.881
0.984771
49.0962
48.2086
-13.8357
45.6751
88.0077
12.0584
-67.3998
-103.493
-3.53553
-70.5192
-124.775
-1.68943
-44.4965
128.867
-148.107
31.4117
59.3767
28.605
-20.1311
-113.752
-113.419
-110.436
60.0069
25.3307
-34.6448
-65.192
-36.4273
38.7375
6.03905
