 1.53
 -2.54
 0.811
 -2.42
 -1.3
 -1.45
 1.29
 2.37
 -1.7
 1.92
 -0.751
 2.25
 0.38
 -0.428
 1.18
 -0.144
 2.48
 -0.739
 0.509
 -0.847
 -2.58
 -2.84
 2.92
 1.28
 0.524
 2.59
 -2.34
 -2.46
 -0.79
 -1.57
 2.83
 -2.26
 -1.11
 0.64
 -1.68
 0.593
 2.19
 2.62
 -0.0386
 -2.51
 1.54
 2.21
 2.74
 -1.08
 -1.22
 0.922
 1.78
 -1.73
 -2.82
 -0.714
 0.419
 -2.4
 -0.558
 0.34
 1.89
 2.97
 -0.0656
 2.54
 -2.49
 2.14
 -2.03
 -2.66
 2.89
 -0.135
 0.976
 -1.79
 -2.54
 0.168
 -2.17
 0.42
 0.66
 2.37
 -0.37
 0.399
 -1.71
 1.41
 -1.68
 -2.93
 2.68
 -1.5
 -0.643
 0.097
 -0.893
 1.8
 -2.56
 -2.01
 1.77
 0.371
 -2.47
 2.27
 -0.484
 -1.49
 2.61
 -0.596
 1.37
 0.583
 0.617
 1.83
 -2.25
 1.45
 -0.749
 1.41
 0.822
 1.88
 -1.19
 2.12
 0.294
 0.131
 2.19
 -0.028
 1.63
 -1.46
 -2.93
 -2.26
 -2.66
 -2.49
 -1.27
 2.11
 0.877
 -0.732
 1.38
 -2.61
 0.775
 0.989
 -0.202
 -0.852
 -1.43
 -2.59
 -2.02
 -0.676
 1.86
 0.23
 -2.26
 -0.314
 -0.889
 -0.454
 -1.2
 2.4
 2.68
 -2.01
 -0.623
 1.31
 -0.467
 -0.554
 2.05
 -0.123
 -0.0483
 -2.21
 -1.01
 -2.17
 0.055
 -2.63
 -1.78
 -2.17
 1.36
 1.02
 -0.0217
 2.93
 1.43
 0.957
 -0.748
 0.299
 -1.81
 -0.0119
 2.99
 0.298
 2.53
 -1.21
 -0.298
 2.21
 -0.224
 2.08
 0.523
 2.31
 -1.48
 -0.424
 -0.813
 1.48
 0.363
 1.17
 2.31
 -2.58
 1.54
 -2.47
 -1.75
 -0.105
 1.55
 1.23
 -0.176
 -0.0178
 -0.816
 2.08
 -2.72
 0.371
 -0.936
 -2.73
 -2.33
 -1.4
 -0.946
 0.371
 -2.19
 1.83
 -0.55
 1.33
 1.14
 0.975
 -2.09
 -2.67
 -0.549
 1.27
 1.5
 -1.24
 1.69
 0.039
 -0.715
 2.94
 2.93
 -2.17
 1.16
 -0.242
 0.815
 -2.65
 -1.17
 1.1
 0.718
 0.898
 1.36
 1.39
 2.5
 -2.58
 -1.24
 -2.69
 2.25
 1.21
 1.64
 0.386
 -0.816
 2.54
 0.712
 1.63
 0.815
 -0.788
 -2.61
 -0.496
 2.25
 -0.323
 -0.559
 2.18
 0.51
 -2.4
 -1.06
 -1.68
 -2.05
 0.777
 2.42
 1.67
 -1.32
 0.783
 0.0565
 -1.83
 1.2
 1.81
 -1.52
 0.444
 0.0233
 -2.89
 -2.17
 2.21
 2.66
 1.54
 0.842
 0.475
 -2.25
 1.23
 2.98
 -3
 -2.09
 -0.581
 2.19
 1.42
 0.0232
 -1.87
 2.74
 0.974
 1.91
 2.17
 -0.356
 -2.42
 -0.0523
 2.7
 -1.24
 -1.85
 1.52
 0.233
 1.59
 -1.46
 0.348
 2.42
 -2.25
 0.00726
 0.962
 1.59
 -2.52
 1.72
 -0.179
 -2.54
 1.72
 0.732
 -0.12
 0.909
 -0.848
 2.9
 2.04
 -1.1
 0.877
 0.951
 -1.94
 -2.48
 1.54
 1.01
 -2.78
 -2.71
 2.16
 1.74
 0.526
 0.747
 -2.72
 -2.13
 0.167
 -1.98
 0.881
 -1.87
 2.61
 1.36
 2.85
 -0.571
 1.82
 1.57
 -2.84
 -1.3
 -0.525
 -0.686
 -1.39
 -1.48
 1.21
 2.48
 2.47
 2.27
 -3
 1
 0.284
 -2.77
 1.3
 -0.56
 1.96
 -1.18
 -2.81
 2.24
 -0.305
 0.354
 -2.74
 -2.42
 1.48
 2.87
 1.94
 1.33
 -0.702
 0.762
 -0.105
 -0.541
 2.46
 2.37
 1.77
 -1.93
 -2.11
 -0.0159
 -2.45
 -2.65
 -0.742
 -2.44
 1.36
 2.54
 -2.22
 -0.346
 -1.02
 2.75
 1.48
 -0.831
 1.99
 -1.83
 2.52
 2.25
 -1.25
 1.01
 2.12
 -2.32
 -0.664
 -1.58
 1.45
 2.23
 0.876
 0.911
 1.6
 -0.351
 1.98
 2.49
 2.63
 2.54
 2.84
 -1.11
 -2.91
 1.2
 -1.57
 -2.12
 -2.15
 0.414
 -2.37
 2.33
 2.58
 2.62
 -2.5
 2.11
 1.86
 -0.754
 0.112
 0.983
 -0.0699
 2.45
 2.4
 -1.62
 1.68
 0.276
 2.29
 0.28
 2.93
 1.27
 -0.231
 2.56
 0.803
 -0.389
 -1.55
 0.897
 -2.19
 -0.118
 1.77
 -1.33
 -2.7
 2.4
 -2
 2.88
 2.02
 -1.5
 1.98
 0.883
 0.743
 -0.905
 -1.13
 -2.33
 -1.46
 -1.73
 -0.951
 -2.78
 1.54
 -1.66
 0.502
 1.47
 2.6
 -2.73
 1.03
 0.407
 -0.118
 2.47
 -1.7
 0.694
 -0.643
 -2.92
 2.36
 -0.348
 2.48
 -2.64
 -0.47
 1.5
 -1.14
 -1.49
 -0.619
 2.6
 0.608
 1.25
 -2.73
 2.15
 2.51
 -0.679
 2.37
 1.05
 0.657
 -0.127
 -0.48
 0.261
 0.143
 -2.45

